{
  "coord": {
    "lon": -0.13,
    "lat": 51.51
  },
  "weather": [
    {
      "id": 500,
      "main": "Rain",
      "description": "light rain",
      "icon": "10d"
    }
  ],
  "base": "stations",
  "main": {
    "temp": 12.38,
    "feels_like": 9.34,
    "temp_min": 11.67,
    "temp_max": 13,
    "pressure": 994,
    "humidity": 66
  },
  "visibility": 10000,
  "wind": {
    "speed": 3.1,
    "deg": 150
  },
  "rain": {
    "1h": 0.18
  },
  "clouds": {
    "all": 47
  },
  "dt": 1600964730,
  "sys": {
    "type": 1,
    "id": 1414,
    "country": "GB",
    "sunrise": 1600926619,
    "sunset": 1600970073
  },
  "timezone": 3600,
  "id": 2643743,
  "name": "London",
  "cod": 200
}